processor_new_branch_load_save_or_done/processor_new_branch_load_save_or_done.sim/sim_1/synth/func/xsim/single_cycle_processor_top.vcd
$date
   Fri Mar 28 18:07:13 2025
$end
$version
  2017.4
$end
$timescale
  1ps
$end
$scope module single_cycle_processor_top_tb $end
$scope module tb $end
$var wire 2 ! RD10 [2:1] $end
$var wire 3 " alu_control_top [2:0] $end
$var wire 1 # alu_control_top_OBUF [0:0] $end
$var wire 1 $ alu_n_30 $end
$var wire 1 % alu_n_31 $end
$var wire 1 & alu_n_32 $end
$var wire 1 ' alu_n_33 $end
$var wire 32 ( alu_result_top [31:0] $end
$var wire 32 ) alu_result_top_OBUF [31:0] $end
$var wire 1 * clk $end
$var wire 1 + clk_IBUF $end
$var wire 1 , clk_IBUF_BUFG $end
$var wire 32 - instn_mem_top [31:0] $end
$var wire 10 . instn_mem_top_OBUF [9:0] $end
$var wire 1 / pc_n_36 $end
$var wire 1 0 pc_n_37 $end
$var wire 1 1 pc_n_39 $end
$var wire 1 2 pc_n_40 $end
$var wire 32 3 pc_plus4 [31:0] $end
$var wire 31 4 pc_plus4_OBUF [31:1] $end
$var wire 32 5 pc_top [31:0] $end
$var wire 31 6 pc_top_OBUF [31:1] $end
$var wire 32 7 read_data_top [31:0] $end
$var wire 1 8 read_data_top_OBUF [0:0] $end
$var wire 1 9 rf_n_0 $end
$var wire 1 : rf_n_1 $end
$var wire 1 ; rf_n_10 $end
$var wire 1 < rf_n_11 $end
$var wire 1 = rf_n_12 $end
$var wire 1 > rf_n_13 $end
$var wire 1 ? rf_n_14 $end
$var wire 1 @ rf_n_15 $end
$var wire 1 A rf_n_16 $end
$var wire 1 B rf_n_17 $end
$var wire 1 C rf_n_18 $end
$var wire 1 D rf_n_19 $end
$var wire 1 E rf_n_20 $end
$var wire 1 F rf_n_21 $end
$var wire 1 G rf_n_22 $end
$var wire 1 H rf_n_23 $end
$var wire 1 I rf_n_24 $end
$var wire 1 J rf_n_25 $end
$var wire 1 K rf_n_26 $end
$var wire 1 L rf_n_27 $end
$var wire 1 M rf_n_28 $end
$var wire 1 N rf_n_29 $end
$var wire 1 O rf_n_30 $end
$var wire 1 P rf_n_31 $end
$var wire 1 Q rf_n_34 $end
$var wire 1 R rf_n_35 $end
$var wire 1 S rf_n_36 $end
$var wire 1 T rf_n_37 $end
$var wire 1 U rf_n_38 $end
$var wire 1 V rf_n_39 $end
$var wire 1 W rf_n_4 $end
$var wire 1 X rf_n_40 $end
$var wire 1 Y rf_n_41 $end
$var wire 1 Z rf_n_42 $end
$var wire 1 [ rf_n_43 $end
$var wire 1 \ rf_n_44 $end
$var wire 1 ] rf_n_45 $end
$var wire 1 ^ rf_n_46 $end
$var wire 1 _ rf_n_47 $end
$var wire 1 ` rf_n_48 $end
$var wire 1 a rf_n_49 $end
$var wire 1 b rf_n_5 $end
$var wire 1 c rf_n_50 $end
$var wire 1 d rf_n_51 $end
$var wire 1 e rf_n_52 $end
$var wire 1 f rf_n_53 $end
$var wire 1 g rf_n_54 $end
$var wire 1 h rf_n_55 $end
$var wire 1 i rf_n_56 $end
$var wire 1 j rf_n_57 $end
$var wire 1 k rf_n_58 $end
$var wire 1 l rf_n_59 $end
$var wire 1 m rf_n_6 $end
$var wire 1 n rf_n_60 $end
$var wire 1 o rf_n_61 $end
$var wire 1 p rf_n_7 $end
$var wire 1 q rf_n_8 $end
$var wire 1 r rf_n_9 $end
$var wire 1 s rst $end
$var wire 1 t rst_IBUF $end
$var wire 1 u top_regwrite $end
$scope module alu $end
$var wire 4 v DI [3:0] $end
$var wire 4 w S [3:0] $end
$var wire 1 $ \alu_result_top[30]  $end
$var wire 1 % \alu_result_top[30]_0  $end
$var wire 1 & \alu_result_top[30]_1  $end
$var wire 1 ' \alu_result_top[30]_2  $end
$var wire 30 x alu_result_top_OBUF [29:0] $end
$var wire 1 Q \pc_reg[2]  $end
$var wire 4 y \pc_reg[2]_0  [3:0] $end
$var wire 4 z \pc_reg[2]_1  [3:0] $end
$var wire 4 { \pc_reg[2]_2  [3:0] $end
$var wire 4 | \pc_reg[2]_3  [3:0] $end
$var wire 4 } \pc_reg[2]_4  [3:0] $end
$var wire 4 ~ \pc_reg[2]_5  [3:0] $end
$var wire 1 W \pc_reg[2]_6  [0:0] $end
$var wire 1 # \pc_reg[2]_7  [0:0] $end
$var wire 4 !! \pc_reg[3]  [3:0] $end
$var wire 4 "! \pc_reg[3]_0  [3:0] $end
$var wire 4 #! \pc_reg[3]_1  [3:0] $end
$var wire 4 $! \pc_reg[3]_2  [3:0] $end
$var wire 4 %! \pc_reg[3]_3  [3:0] $end
$var wire 4 &! \pc_reg[3]_4  [3:0] $end
$var wire 2 '! \pc_reg[3]_5  [1:0] $end
$var wire 1 (! sum__0_carry__0_n_0 $end
$var wire 1 )! sum__0_carry__0_n_1 $end
$var wire 1 *! sum__0_carry__0_n_2 $end
$var wire 1 +! sum__0_carry__0_n_3 $end
$var wire 1 ,! sum__0_carry__1_n_0 $end
$var wire 1 -! sum__0_carry__1_n_1 $end
$var wire 1 .! sum__0_carry__1_n_2 $end
$var wire 1 /! sum__0_carry__1_n_3 $end
$var wire 1 0! sum__0_carry__2_n_0 $end
$var wire 1 1! sum__0_carry__2_n_1 $end
$var wire 1 2! sum__0_carry__2_n_2 $end
$var wire 1 3! sum__0_carry__2_n_3 $end
$var wire 1 4! sum__0_carry__3_n_0 $end
$var wire 1 5! sum__0_carry__3_n_1 $end
$var wire 1 6! sum__0_carry__3_n_2 $end
$var wire 1 7! sum__0_carry__3_n_3 $end
$var wire 1 8! sum__0_carry__4_n_0 $end
$var wire 1 9! sum__0_carry__4_n_1 $end
$var wire 1 :! sum__0_carry__4_n_2 $end
$var wire 1 ;! sum__0_carry__4_n_3 $end
$var wire 1 <! sum__0_carry__5_n_0 $end
$var wire 1 =! sum__0_carry__5_n_1 $end
$var wire 1 >! sum__0_carry__5_n_2 $end
$var wire 1 ?! sum__0_carry__5_n_3 $end
$var wire 1 @! sum__0_carry__6_n_3 $end
$var wire 1 A! sum__0_carry_n_0 $end
$var wire 1 B! sum__0_carry_n_1 $end
$var wire 1 C! sum__0_carry_n_2 $end
$var wire 1 D! sum__0_carry_n_3 $end
$var wire 3 E! NLW_sum__0_carry__6_CO_UNCONNECTED [3:1] $end
$var wire 2 F! NLW_sum__0_carry__6_O_UNCONNECTED [3:2] $end
$upscope $end
$scope module data_mem $end
$var wire 1 G! RD0 [31:31] $end
$var wire 10 H! alu_result_top_OBUF [9:0] $end
$var wire 1 , clk_IBUF_BUFG $end
$var wire 1 I! data_mem_reg_0_255_31_31_n_0 $end
$var wire 1 J! data_mem_reg_256_511_31_31_n_0 $end
$var wire 1 K! data_mem_reg_512_767_31_31_n_0 $end
$var wire 1 L! data_mem_reg_768_1023_31_31_n_0 $end
$var wire 1 ' \pc_reg[2]  $end
$var wire 1 & \pc_reg[2]_0  $end
$var wire 1 % \pc_reg[2]_1  $end
$var wire 1 $ \pc_reg[2]_2  $end
$var wire 1 # \pc_reg[2]_3  [0:0] $end
$var wire 1 8 read_data_top_OBUF [0:0] $end
$var wire 1 t rst_IBUF $end
$upscope $end
$scope module pc $end
$var wire 1 / DI [0:0] $end
$var wire 2 ! RD10 [1:0] $end
$var wire 1 0 S [0:0] $end
$var wire 1 1 \alu_result_top[30]  [0:0] $end
$var wire 1 2 \alu_result_top[30]_0  $end
$var wire 1 , clk_IBUF_BUFG $end
$var wire 6 M! instn_mem_top_OBUF [5:0] $end
$var wire 1 N! p_0_in $end
$var wire 1 O! \pc[13]_i_2_n_0  $end
$var wire 1 P! \pc[13]_i_3_n_0  $end
$var wire 1 Q! \pc[13]_i_4_n_0  $end
$var wire 1 R! \pc[13]_i_5_n_0  $end
$var wire 1 S! \pc[17]_i_2_n_0  $end
$var wire 1 T! \pc[17]_i_3_n_0  $end
$var wire 1 U! \pc[17]_i_4_n_0  $end
$var wire 1 V! \pc[17]_i_5_n_0  $end
$var wire 1 W! \pc[1]_i_3_n_0  $end
$var wire 1 X! \pc[1]_i_4_n_0  $end
$var wire 1 Y! \pc[1]_i_5_n_0  $end
$var wire 1 Z! \pc[1]_i_6_n_0  $end
$var wire 1 [! \pc[21]_i_2_n_0  $end
$var wire 1 \! \pc[21]_i_3_n_0  $end
$var wire 1 ]! \pc[21]_i_4_n_0  $end
$var wire 1 ^! \pc[21]_i_5_n_0  $end
$var wire 1 _! \pc[25]_i_2_n_0  $end
$var wire 1 `! \pc[25]_i_3_n_0  $end
$var wire 1 a! \pc[25]_i_4_n_0  $end
$var wire 1 b! \pc[25]_i_5_n_0  $end
$var wire 1 c! \pc[29]_i_2_n_0  $end
$var wire 1 d! \pc[29]_i_3_n_0  $end
$var wire 1 e! \pc[29]_i_4_n_0  $end
$var wire 1 f! \pc[5]_i_2_n_0  $end
$var wire 1 g! \pc[5]_i_3_n_0  $end
$var wire 1 h! \pc[5]_i_4_n_0  $end
$var wire 1 i! \pc[5]_i_5_n_0  $end
$var wire 1 j! \pc[9]_i_2_n_0  $end
$var wire 1 k! \pc[9]_i_3_n_0  $end
$var wire 1 l! \pc[9]_i_4_n_0  $end
$var wire 1 m! \pc[9]_i_5_n_0  $end
$var wire 1 n! \pc_reg[13]_i_1_n_0  $end
$var wire 1 o! \pc_reg[13]_i_1_n_1  $end
$var wire 1 p! \pc_reg[13]_i_1_n_2  $end
$var wire 1 q! \pc_reg[13]_i_1_n_3  $end
$var wire 1 r! \pc_reg[13]_i_1_n_4  $end
$var wire 1 s! \pc_reg[13]_i_1_n_5  $end
$var wire 1 t! \pc_reg[13]_i_1_n_6  $end
$var wire 1 u! \pc_reg[13]_i_1_n_7  $end
$var wire 1 v! \pc_reg[17]_i_1_n_0  $end
$var wire 1 w! \pc_reg[17]_i_1_n_1  $end
$var wire 1 x! \pc_reg[17]_i_1_n_2  $end
$var wire 1 y! \pc_reg[17]_i_1_n_3  $end
$var wire 1 z! \pc_reg[17]_i_1_n_4  $end
$var wire 1 {! \pc_reg[17]_i_1_n_5  $end
$var wire 1 |! \pc_reg[17]_i_1_n_6  $end
$var wire 1 }! \pc_reg[17]_i_1_n_7  $end
$var wire 1 ~! \pc_reg[1]_i_2_n_0  $end
$var wire 1 !" \pc_reg[1]_i_2_n_1  $end
$var wire 1 "" \pc_reg[1]_i_2_n_2  $end
$var wire 1 #" \pc_reg[1]_i_2_n_3  $end
$var wire 1 $" \pc_reg[1]_i_2_n_4  $end
$var wire 1 %" \pc_reg[1]_i_2_n_5  $end
$var wire 1 &" \pc_reg[1]_i_2_n_6  $end
$var wire 1 '" \pc_reg[1]_i_2_n_7  $end
$var wire 1 (" \pc_reg[21]_i_1_n_0  $end
$var wire 1 )" \pc_reg[21]_i_1_n_1  $end
$var wire 1 *" \pc_reg[21]_i_1_n_2  $end
$var wire 1 +" \pc_reg[21]_i_1_n_3  $end
$var wire 1 ," \pc_reg[21]_i_1_n_4  $end
$var wire 1 -" \pc_reg[21]_i_1_n_5  $end
$var wire 1 ." \pc_reg[21]_i_1_n_6  $end
$var wire 1 /" \pc_reg[21]_i_1_n_7  $end
$var wire 1 0" \pc_reg[25]_i_1_n_0  $end
$var wire 1 1" \pc_reg[25]_i_1_n_1  $end
$var wire 1 2" \pc_reg[25]_i_1_n_2  $end
$var wire 1 3" \pc_reg[25]_i_1_n_3  $end
$var wire 1 4" \pc_reg[25]_i_1_n_4  $end
$var wire 1 5" \pc_reg[25]_i_1_n_5  $end
$var wire 1 6" \pc_reg[25]_i_1_n_6  $end
$var wire 1 7" \pc_reg[25]_i_1_n_7  $end
$var wire 1 8" \pc_reg[29]_i_1_n_2  $end
$var wire 1 9" \pc_reg[29]_i_1_n_3  $end
$var wire 1 :" \pc_reg[29]_i_1_n_5  $end
$var wire 1 ;" \pc_reg[29]_i_1_n_6  $end
$var wire 1 <" \pc_reg[29]_i_1_n_7  $end
$var wire 1 # \pc_reg[4]_0  [0:0] $end
$var wire 1 =" \pc_reg[5]_i_1_n_0  $end
$var wire 1 >" \pc_reg[5]_i_1_n_1  $end
$var wire 1 ?" \pc_reg[5]_i_1_n_2  $end
$var wire 1 @" \pc_reg[5]_i_1_n_3  $end
$var wire 1 A" \pc_reg[5]_i_1_n_4  $end
$var wire 1 B" \pc_reg[5]_i_1_n_5  $end
$var wire 1 C" \pc_reg[5]_i_1_n_6  $end
$var wire 1 D" \pc_reg[5]_i_1_n_7  $end
$var wire 1 E" \pc_reg[9]_i_1_n_0  $end
$var wire 1 F" \pc_reg[9]_i_1_n_1  $end
$var wire 1 G" \pc_reg[9]_i_1_n_2  $end
$var wire 1 H" \pc_reg[9]_i_1_n_3  $end
$var wire 1 I" \pc_reg[9]_i_1_n_4  $end
$var wire 1 J" \pc_reg[9]_i_1_n_5  $end
$var wire 1 K" \pc_reg[9]_i_1_n_6  $end
$var wire 1 L" \pc_reg[9]_i_1_n_7  $end
$var wire 29 M" pc_top_OBUF [28:0] $end
$var wire 1 t rst_IBUF $end
$var wire 1 u top_regwrite $end
$var wire 2 N" \NLW_pc_reg[29]_i_1_CO_UNCONNECTED  [3:2] $end
$var wire 1 O" \NLW_pc_reg[29]_i_1_O_UNCONNECTED  [3:3] $end
$upscope $end
$scope module pc_add $end
$var wire 1 0 S [0:0] $end
$var wire 31 P" c0 [31:1] $end
$var wire 1 Q" c0_carry__0_n_0 $end
$var wire 1 R" c0_carry__0_n_1 $end
$var wire 1 S" c0_carry__0_n_2 $end
$var wire 1 T" c0_carry__0_n_3 $end
$var wire 1 U" c0_carry__1_n_0 $end
$var wire 1 V" c0_carry__1_n_1 $end
$var wire 1 W" c0_carry__1_n_2 $end
$var wire 1 X" c0_carry__1_n_3 $end
$var wire 1 Y" c0_carry__2_n_0 $end
$var wire 1 Z" c0_carry__2_n_1 $end
$var wire 1 [" c0_carry__2_n_2 $end
$var wire 1 \" c0_carry__2_n_3 $end
$var wire 1 ]" c0_carry__3_n_0 $end
$var wire 1 ^" c0_carry__3_n_1 $end
$var wire 1 _" c0_carry__3_n_2 $end
$var wire 1 `" c0_carry__3_n_3 $end
$var wire 1 a" c0_carry__4_n_0 $end
$var wire 1 b" c0_carry__4_n_1 $end
$var wire 1 c" c0_carry__4_n_2 $end
$var wire 1 d" c0_carry__4_n_3 $end
$var wire 1 e" c0_carry__5_n_0 $end
$var wire 1 f" c0_carry__5_n_1 $end
$var wire 1 g" c0_carry__5_n_2 $end
$var wire 1 h" c0_carry__5_n_3 $end
$var wire 1 i" c0_carry__6_n_2 $end
$var wire 1 j" c0_carry__6_n_3 $end
$var wire 1 k" c0_carry_n_0 $end
$var wire 1 l" c0_carry_n_1 $end
$var wire 1 m" c0_carry_n_2 $end
$var wire 1 n" c0_carry_n_3 $end
$var wire 1 o" instn_mem_top_OBUF [0:0] $end
$var wire 31 4 pc_plus4_OBUF [30:0] $end
$var wire 1 # \pc_reg[2]  [0:0] $end
$var wire 29 p" pc_top_OBUF [28:0] $end
$var wire 1 t rst_IBUF $end
$var wire 2 q" NLW_c0_carry__6_CO_UNCONNECTED [3:2] $end
$var wire 1 r" NLW_c0_carry__6_O_UNCONNECTED [3:3] $end
$upscope $end
$scope module rf $end
$var wire 3 s" DI [2:0] $end
$var wire 32 t" RD10 [31:0] $end
$var wire 3 u" S [2:0] $end
$var wire 2 v" \alu_result_top[30]  [1:0] $end
$var wire 2 ! \alu_result_top[30]_0  [1:0] $end
$var wire 1 W \alu_result_top[30]_1  [0:0] $end
$var wire 4 w" \alu_result_top[30]_10  [3:0] $end
$var wire 4 x" \alu_result_top[30]_11  [3:0] $end
$var wire 4 y" \alu_result_top[30]_12  [3:0] $end
$var wire 4 z" \alu_result_top[30]_13  [3:0] $end
$var wire 4 {" \alu_result_top[30]_14  [3:0] $end
$var wire 4 |" \alu_result_top[30]_2  [3:0] $end
$var wire 4 }" \alu_result_top[30]_3  [3:0] $end
$var wire 4 ~" \alu_result_top[30]_4  [3:0] $end
$var wire 4 !# \alu_result_top[30]_5  [3:0] $end
$var wire 4 "# \alu_result_top[30]_6  [3:0] $end
$var wire 4 ## \alu_result_top[30]_7  [3:0] $end
$var wire 1 Q \alu_result_top[30]_8  $end
$var wire 4 $# \alu_result_top[30]_9  [3:0] $end
$var wire 2 %# alu_result_top_OBUF [1:0] $end
$var wire 1 , clk_IBUF_BUFG $end
$var wire 4 &# instn_mem_top_OBUF [3:0] $end
$var wire 1 # \pc_reg[2]  [0:0] $end
$var wire 1 2 \pc_reg[2]_0  $end
$var wire 1 8 read_data_top_OBUF [0:0] $end
$var wire 1 t rst_IBUF $end
$var wire 1 u top_regwrite $end
$var wire 2 '# NLW_Registers_reg_0_31_0_5_DOD_UNCONNECTED [1:0] $end
$var wire 2 (# NLW_Registers_reg_0_31_12_17_DOD_UNCONNECTED [1:0] $end
$var wire 2 )# NLW_Registers_reg_0_31_18_23_DOD_UNCONNECTED [1:0] $end
$var wire 2 *# NLW_Registers_reg_0_31_24_29_DOD_UNCONNECTED [1:0] $end
$var wire 2 +# NLW_Registers_reg_0_31_30_31_DOB_UNCONNECTED [1:0] $end
$var wire 2 ,# NLW_Registers_reg_0_31_30_31_DOC_UNCONNECTED [1:0] $end
$var wire 2 -# NLW_Registers_reg_0_31_30_31_DOD_UNCONNECTED [1:0] $end
$var wire 2 .# NLW_Registers_reg_0_31_6_11_DOD_UNCONNECTED [1:0] $end
$upscope $end
$upscope $end
$upscope $end
$enddefinitions $end
#0
$dumpvars
bx !
b1111 !!
0!"
b0 !#
b0x "
b1111 "!
0""
b0 "#
x#
b1111 #!
0#"
b0 ##
x$
b1111 $!
0$"
b1111 $#
x%
b1111 %!
0%"
b0 %#
x&
b1111 &!
0&"
bx &#
x'
b11 '!
0'"
bx '#
bx00 (
x(!
0("
bx (#
bx00 )
x)!
0)"
bx )#
1*
x*!
0*"
bx *#
1+
x+!
0+"
bx +#
1,
x,!
0,"
bx ,#
bx000xxxx0x000xxx0xx0xxx -
x-!
0-"
bx -#
bxzzxxzxzx .
x.!
0."
bx .#
x/
x/!
0/"
x0
x0!
00"
x1
x1!
01"
x2
x2!
02"
b0 3
x3!
03"
b0 4
x4!
04"
bx0 5
x5!
05"
bxzzx 6
x6!
06"
bx 7
x7!
07"
x8
x8!
08"
19
x9!
09"
1:
x:!
0:"
0;
x;!
0;"
0<
x<!
0<"
0=
x=!
0="
0>
x>!
0>"
0?
x?!
0?"
0@
x@!
0@"
0A
xA!
0A"
0B
xB!
0B"
0C
xC!
0C"
0D
xD!
0D"
0E
b0x E!
0E"
0F
b0x F!
0F"
0G
xG!
0G"
0H
bx00 H!
0H"
0I
xI!
0I"
0J
xJ!
0J"
0K
xK!
0K"
0L
xL!
0L"
0M
bx M!
bx M"
0N
1N!
b0 N"
0O
0O!
0O"
xP
0P!
bx P"
1Q
0Q!
xQ"
1R
0R!
xR"
1S
0S!
xS"
xT
0T!
xT"
1U
0U!
xU"
1V
0V!
xV"
0W
0W!
xW"
1X
0X!
xX"
1Y
0Y!
xY"
1Z
0Z!
xZ"
1[
0[!
x["
1\
0\!
x\"
1]
0]!
x]"
1^
0^!
x^"
1_
0_!
x_"
1`
0`!
x`"
1a
0a!
xa"
0b
0b!
xb"
1c
0c!
xc"
1d
0d!
xd"
1e
0e!
xe"
1f
0f!
xf"
1g
0g!
xg"
1h
0h!
xh"
1i
0i!
xi"
1j
0j!
xj"
1k
0k!
xk"
1l
0l!
xl"
0m
0m!
xm"
1n
0n!
0n"
1o
0o!
xo"
0p
0p!
bx p"
0q
0q!
b0x q"
0r
0r!
xr"
0s
0s!
b0x s"
0t
0t!
bxzzx t"
xu
0u!
b11x u"
b0xx v
0v!
b11 v"
b11xx w
0w!
b1111 w"
bx x
0x!
b1111 x"
b0 y
0y!
b1111 y"
b0 z
0z!
b1111 z"
b0 {
0{!
b1111 {"
b0 |
0|!
b0 |"
b0 }
0}!
b0 }"
b0 ~
0~!
b0 ~"
$end
#100
b1 !
b0 "
0#
1$
0%
b0 %#
0&
b1100 &#
0'
b0 '#
b11111111111111111111111111111100 (
0(!
b0 (#
b11111111111111111111111111111100 )
0)!
b0 )#
0*!
b0 *#
0+!
b0 +#
0,!
b0 ,#
b11111111110001001010001100000011 -
0-!
b0 -#
b11zz00z0z1 .
0.!
b0 .#
0/
0/!
10
00!
01
01!
12
02!
03!
b0 4
04!
b0 5
05!
b0zz0 6
06!
b0 7
07!
08
08!
09!
0:!
0;!
0<!
0=!
0>!
0?!
0@!
0A!
0B!
0C!
0D!
b0 E!
b0 F!
0G!
b1111111100 H!
0I!
0J!
0K!
0L!
b110001 M!
b0 M"
0O!
0P
0P!
b10 P"
1Q
0Q!
0Q"
0R!
0R"
0S!
0S"
1T
0T!
0T"
0U!
0U"
0V!
0V"
0W!
0W"
0X!
0X"
0Y!
0Y"
0Z!
0Z"
0[!
0["
0\!
0\"
0]!
0]"
0^!
0^"
0_!
0_"
0`!
0`"
0a!
0a"
0b!
0b"
0c!
0c"
0d!
0d"
0e!
0e"
0f!
0f"
0g!
0g"
0h!
0h"
0i!
0i"
0j!
0j"
0k!
0k"
0l!
0l"
0m!
0m"
0n"
0o"
b0 p"
b0 q"
0r"
b0 s"
b10101010101010101011101110111zz1 t"
1u
b111 u"
b0 v
b1110 w
b111111111111111111111111111111 x
#5000
0*
0+
0,
#10000
1*
1+
1,
#10100
b1 !
b10101010101010101011101110111zz1 t"
#15000
0*
0+
0,
#20000
1*
1+
1,
#25000
0*
0+
0,
#30000
1*
1+
1,
#35000
0*
0+
0,
#40000
1*
1+
1,
#45000
0*
0+
0,
#50000
1*
1+
1,
#55000
0*
0+
0,
#60000
1*
1+
1,
#65000
0*
0+
0,
#70000
1*
1+
1,
#75000
0*
0+
0,
#80000
1*
1+
1,
#85000
0*
0+
0,
#90000
1*
1+
1,
#95000
0*
0+
0,
#100000
b1100 !!
0!"
b101 !#
b1100 "!
0""
b1101 "#
b0 #!
0#"
b1101 ##
b0 $!
0$"
b0 $#
b0 %!
0%"
b11 %#
b0 &!
1&"
b0 '!
0'"
b10101010101010101011101110110111 (
0(!
b10101010101010101011101110110111 )
0)!
1*
0*!
1+
1+!
1,
0,!
0-!
0.!
1/!
00!
11
11!
02!
b100 3
13!
b10 4
04!
15!
06!
17!
08
08!
09
19!
0:
0:!
1;
1;!
0<!
1=
1=!
0>!
1?
1?!
1@!
1A
0A!
0B!
1C
1C!
0D!
1E
b0 E!
1F
b0 F!
1G
b1110110111 H!
1I
0I!
1J
0J!
1K
0K!
0L!
1M
1N
0N!
0O!
1P
0P!
0Q
0Q!
0R!
0S
0S!
0T
0T!
0U
0U!
0V
0V!
1W
0W!
0X
0X!
0Y
1Y!
0Z
0Z!
0[
0[!
0\
0\!
0]
0]!
0^
0^!
0_
0_!
0`
0`!
0a
0a!
0b!
0c
0c!
0d
0d!
0e
0e!
0f
0f!
0g!
0h!
0i
0i!
0j
0j!
0k!
0l!
1m
0m!
0n
0o
1q
1s
b101 s"
1t
b100 u"
b1010 v
b0 v"
b1001 w
b0 w"
b101010101010101010111011101101 x
b0 x"
b1101 y
b0 y"
b1101 z
b1100 z"
b101 {
b1100 {"
b101 |
b101 |"
b101 }
b101 }"
b101 ~
0~!
b101 ~"
#105000
0*
0+
0,
#110000
1*
1+
1,
#110100
b1110 !!
0!"
b1010 !#
b1 "
b1110 "!
1""
b10 "#
1#
b1010 #!
0#"
b10 ##
0$
b1010 $!
0$"
b1010 $#
0%
b1010 %!
1%"
0&
b1010 &!
0&"
0'
b10 '!
0'"
b10101010101010101011101110111111 (
0(!
b10101010101010101011101110111111 )
0)!
0*!
0+!
0,!
b11111111110001001010001100000100 -
0-!
b11zz00z1z0 .
0.!
0/
0/!
00
00!
01!
02
02!
b1000 3
03!
b100 4
04!
b100 5
05!
06!
07!
08
08!
19
09!
0:!
0;
0;!
1<
0<!
0=
0=!
1>
0>!
0?
0?!
1@
0@!
0A
0A!
1B
0B!
0C
0C!
1D
0D!
0E
b0 E!
0F
b0 F!
0G
1H
b1110111111 H!
0I
0I!
0J
0J!
0K
0K!
1L
0L!
0M
b110010 M!
0N
0P
b100 P"
1S
1T
1U
0W
1X
0Y!
1Z
1\
1^
1`
1b
1c
1e
1i
0k"
0l"
0m
1m"
1n
0n"
1p
0q
1r
b0 s"
0u
b111 u"
b0 v
b10 v"
b1111 w
b1010 w"
b101010101010101010111011101111 x
b1010 x"
b10 y
b1010 y"
b10 z
b1110 z"
b1010 {
b1110 {"
b1010 |
b1010 |"
b1010 }
b1010 }"
b1010 ~
0~!
b1010 ~"
#115000
0*
0+
0,
#120000
1*
1+
1,
#120100
b0 !
b1111 !!
0!"
b0 !#
b0 "
b1111 "!
0""
b0 "#
0#
b1111 #!
0#"
b0 ##
0$
b1111 $!
0$"
b1111 $#
0%
b1111 %!
1%"
b0 %#
0&
b1111 &!
1&"
b1011 &#
1'
b11 '!
0'"
b100 (
1(!
b100 )
1)!
1*!
1+!
1,!
b10000110000001010110011 -
1-!
b10zz11z0z1 .
1.!
0/
1/!
10
10!
01
11!
02
12!
b1100 3
13!
b110 4
14!
b1000 5
15!
16!
17!
08
18!
19!
1:
1:!
1;!
0<
1<!
1=!
0>
1>!
1?!
0@
1@!
1A!
0B
1B!
1C!
0D
0D!
b1 E!
b1 F!
0H
b100 H!
0I!
0J!
0K!
0L
0L!
b101101 M!
0N
1P
b110 P"
1Q
1R
1S
0T
1V
1X!
1Y
1Y!
1[
1]
1_
1a
0b
1d
1f
1j
0k"
0l"
0m"
0n"
1o
1o"
0p
0r
b1 s"
b0zz0 t"
1u
b110 u"
b10 v
b11 v"
b1100 w
b1111 w"
b1 x
b1111 x"
b0 y
b1111 y"
b0 z
b1111 z"
b0 {
b1111 {"
b0 |
b0 |"
b0 }
b0 }"
b0 ~
0~!
b0 ~"
#125000
0*
0+
0,
#130000
1*
1+
1,
#130100
b0 !
1!"
b1 "
1""
1#
0#"
0$
1$"
0%
0%"
0&
0&"
b1 &#
0'
0'"
b0 (
b0 )
b10011 -
b0zz01z0z1 .
1/
00
11
12
b10000 3
b1000 4
b1100 5
08
1A!
1B!
1C!
1D!
b0 H!
0I!
0J!
0K!
0L!
b101 M!
0P
b1000 P"
1T
0Y!
0k"
1l"
1m"
0n"
b0 s"
b0zz0 t"
0u
b111 u"
b1 v
b1111 w
b0 x
0~!
#135000
0*
0+
0,
#140000
1*
1+
1,
#140100
b1 !
b1100 !!
0!"
b101 !#
b0 "
b1100 "!
0""
b1101 "#
0#
b0 #!
0#"
b1101 ##
1$
b0 $!
1$"
b0 $#
0%
b0 %!
0%"
b11 %#
0&
b0 &!
1&"
b1100 &#
0'
b0 '!
0'"
b10101010101010101011101110110111 (
0(!
b10101010101010101011101110110111 )
0)!
0*!
1+!
0,!
b11111111110001001010001100000011 -
0-!
b11zz00z0z1 .
0.!
0/
1/!
10
00!
11
11!
12
02!
b10100 3
13!
b1010 4
04!
b10000 5
15!
b1zz0 6
06!
17!
08
08!
09
19!
0:
0:!
1;
1;!
0<!
1=
1=!
0="
0>!
0>"
1?
1?!
0?"
1@!
0@"
1A
0A!
0A"
0B!
0B"
1C
1C!
0C"
0D!
0D"
1E
b0 E!
1F
b0 F!
1G
b1110110111 H!
1I
0I!
1J
0J!
1K
0K!
0L!
1M
b110001 M!
b10 M"
1N
1P
b1010 P"
0Q
0Q"
0R"
0S
0S"
0T
0T"
0U
0V
1W
1W!
0X
0X!
0Y
1Y!
0Z
0[
0\
0]
0^
0_
0`
0a
0c
0d
0e
0f
0i
0j
0k"
0l"
1m
0m"
0n
0n"
0o
0o"
b10 p"
1q
b101 s"
b10101010101010101011101110111zz1 t"
1u
b100 u"
b1010 v
b0 v"
b1001 w
b0 w"
b101010101010101010111011101101 x
b0 x"
b1101 y
b0 y"
b1101 z
b1100 z"
b101 {
b1100 {"
b101 |
b101 |"
b101 }
b101 }"
b101 ~
0~!
b101 ~"
#145000
0*
0+
0,
#150000
1*
1+
1,
#150100
b1110 !!
0!"
b1010 !#
b1 "
b1110 "!
1""
b10 "#
1#
b1010 #!
0#"
b10 ##
0$
b1010 $!
1$"
b1010 $#
0%
b1010 %!
1%"
0&
b1010 &!
0&"
0'
b10 '!
0'"
b10101010101010101011101110111111 (
0(!
b10101010101010101011101110111111 )
0)!
0*!
0+!
0,!
b11111111110001001010001100000100 -
0-!
b11zz00z1z0 .
0.!
0/
0/!
00
00!
01!
02
02!
b11000 3
03!
b1100 4
04!
b10100 5
05!
06!
07!
08
08!
19
09!
0:!
0;
0;!
1<
0<!
0=
0=!
1>
0>!
0?
0?!
1@
0@!
0A
0A!
1B
0B!
0C
0C!
1D
0D!
0E
b0 E!
0F
b0 F!
0G
1H
b1110111111 H!
0I
0I!
0J
0J!
0K
0K!
1L
0L!
0M
b110010 M!
0N
0P
b1100 P"
1S
1T
1U
0W
1X
0Y!
1Z
1\
1^
1`
1b
1c
1e
1i
0k"
0l"
0m
1m"
1n
0n"
1p
0q
1r
b0 s"
0u
b111 u"
b0 v
b10 v"
b1111 w
b1010 w"
b101010101010101010111011101111 x
b1010 x"
b10 y
b1010 y"
b10 z
b1110 z"
b1010 {
b1110 {"
b1010 |
b1010 |"
b1010 }
b1010 }"
b1010 ~
0~!
b1010 ~"
#155000
0*
0+
0,
#160000
1*
1+
1,
